…
    school_earnings <- read_csv("data/school_earnings.csv")

    ## Rows: 21 Columns: 4
    ## ── Column specification ────────────────────────────────────────────────────────
    ## Delimiter: ","
    ## chr (1): School
    ## dbl (3): Women, Men, Gap
    ## 
    ## ℹ Use `spec()` to retrieve the full column specification for this data.
    ## ℹ Specify the column types or set `show_col_types = FALSE` to quiet this message.

    print(school_earnings)

    ## # A tibble: 21 × 4
    ##    School     Women   Men   Gap
    ##    <chr>      <dbl> <dbl> <dbl>
    ##  1 MIT           94   152    58
    ##  2 Stanford      96   151    55
    ##  3 Harvard      112   165    53
    ##  4 U.Penn        92   141    49
    ##  5 Princeton     90   137    47
    ##  6 Chicago       78   118    40
    ##  7 Georgetown    94   131    37
    ##  8 Tufts         76   112    36
    ##  9 Yale          79   114    35
    ## 10 Columbia      86   119    33
    ## # ℹ 11 more rows
…
