# ДЗ 2. Анализ данных стоимости медобслуживания пациентов (Medical Cost Personal Datasets)

## Винник Екатерина Петровна, 22.М04

    library(readr)
    options(readr.show_col_types = FALSE)
    insurance_data <- read_csv("data/insurance.csv")
    print(insurance_data)

    ## # A tibble: 1,338 × 7
    ##      age sex      bmi children smoker region    charges
    ##    <dbl> <chr>  <dbl>    <dbl> <chr>  <chr>       <dbl>
    ##  1    19 female  27.9        0 yes    southwest  16885.
    ##  2    18 male    33.8        1 no     southeast   1726.
    ##  3    28 male    33          3 no     southeast   4449.
    ##  4    33 male    22.7        0 no     northwest  21984.
    ##  5    32 male    28.9        0 no     northwest   3867.
    ##  6    31 female  25.7        0 no     southeast   3757.
    ##  7    46 female  33.4        1 no     southeast   8241.
    ##  8    37 female  27.7        3 no     northwest   7282.
    ##  9    37 male    29.8        2 no     northeast   6406.
    ## 10    60 female  25.8        0 no     northwest  28923.
    ## # ℹ 1,328 more rows
…
Таким образом, можно сказать, что: - различия между мужчинами и
женщинами по непрерывному признаку расходы (charges) являются
значимыми - различия по остальным признакам: возраст (age), количество
детей (children), индекс массы тела (bmi) не являются значимыми

## Анализ коррелляций непрерывных признаков

    library(corrplot)

    ## corrplot 0.92 loaded

    insurance_data <- insurance_data %>% mutate(children = as.numeric(children))
    insurance_data

    ## # A tibble: 1,338 × 7
    ##      age sex      bmi children smoker region    charges
    ##    <dbl> <chr>  <dbl>    <dbl> <chr>  <chr>       <dbl>
    ##  1    19 female  27.9        0 yes    southwest  16885.
    ##  2    18 male    33.8        1 no     southeast   1726.
    ##  3    28 male    33          3 no     southeast   4449.
    ##  4    33 male    22.7        0 no     northwest  21984.
    ##  5    32 male    28.9        0 no     northwest   3867.
    ##  6    31 female  25.7        0 no     southeast   3757.
    ##  7    46 female  33.4        1 no     southeast   8241.
    ##  8    37 female  27.7        3 no     northwest   7282.
    ##  9    37 male    29.8        2 no     northeast   6406.
    ## 10    60 female  25.8        0 no     northwest  28923.
    ## # ℹ 1,328 more rows
…
