# ДЗ 3. Кластеризация данных отзывов о путешествиях

## Винник Екатерина Петровна, 22.М04

Загрузим данные.

    library(readr)
    options(readr.show_col_types = FALSE)
    review_data <- read_csv("data/tripadvisor_review.csv")
    print(review_data)

    ## # A tibble: 980 × 11
    ##    `User ID` `Category 1` `Category 2` `Category 3` `Category 4` `Category 5`
    ##    <chr>            <dbl>        <dbl>        <dbl>        <dbl>        <dbl>
    ##  1 User 1            0.93         1.8          2.29         0.62         0.8 
    ##  2 User 2            1.02         2.2          2.66         0.64         1.42
    ##  3 User 3            1.22         0.8          0.54         0.53         0.24
    ##  4 User 4            0.45         1.8          0.29         0.57         0.46
    ##  5 User 5            0.51         1.2          1.18         0.57         1.54
    ##  6 User 6            0.99         1.28         0.72         0.27         0.74
    ##  7 User 7            0.9          1.36         0.26         0.32         0.86
    ##  8 User 8            0.74         1.4          0.22         0.41         0.82
    ##  9 User 9            1.12         1.76         1.04         0.64         0.82
    ## 10 User 10           0.7          1.36         0.22         0.26         1.5 
    ## # ℹ 970 more rows
    ## # ℹ 5 more variables: `Category 6` <dbl>, `Category 7` <dbl>,
    ## #   `Category 8` <dbl>, `Category 9` <dbl>, `Category 10` <dbl>
…
